…
``` r
providers <- read_excel(provider_xl, skip = 2)

providers
```

    ## # A tibble: 81 x 67
    ##    `County Name` `Aerospace Medi… `Allergy and Im… Anesthesiology Cardiology
    ##    <chr>                    <dbl>            <dbl>          <dbl>      <dbl>
    ##  1 California                  29              428           3727       2003
    ##  2 Alameda                      0               21            153         78
    ##  3 Amador                       0                0              2          2
    ##  4 Butte                        0                0             21         11
    ##  5 Calaveras                    0                0              2          1
    ##  6 Colusa                       0                0              1          0
    ##  7 Contra Costa                 0               16            124         49
    ##  8 Del Norte                    0                0              0          0
    ##  9 El Dorado                    0                0             12          5
    ## 10 Fresno                       0               12             60         44
    ## # … with 71 more rows, and 62 more variables: `Colon and Rectal Surgery` <dbl>,
    ## #   `Complementary and Alternative Medicine` <dbl>, `Cosmetic Surgery` <dbl>,
    ## #   `Critical Care` <dbl>, Dermatology <dbl>, `Emergency Medicine` <dbl>,
    ## #   Endocrinology <dbl>, Epilepsy <dbl>, `Facial, Plastic and Reconstructive
    ## #   Surgery` <dbl>, `Family Medicine` <dbl>, Gastroenterology <dbl>, `General
    ## #   Practice` <dbl>, `General Surgery` <dbl>, `Geriatric Medicine` <dbl>,
    ## #   Hematology <dbl>, `Hospice and Palliative Medicine` <dbl>, `Infectious
    ## #   Disease` <dbl>, `Internal Medicine` <dbl>, `Medical Genetics` <dbl>,
    ## #   `Neonatal-Perinatal Medicine` <dbl>, Nephrology <dbl>, `Neurological
…
